Procesamiento y visualización de datos en R
…
```
## ── Column specification ────────────────────────────────────────────────────────
## Delimiter: ","
## chr (3): month, estacion, zona
## dbl (9): y2007, y2008, y2009, y2010, y2011, y2012, y2013, y2014, y2015
```

```
## 
## ℹ Use `spec()` to retrieve the full column specification for this data.
## ℹ Specify the column types or set `show_col_types = FALSE` to quiet this message.
```

```
## # A tibble: 68 × 12
##   month estacion zona    y2007  y2008  y2009  y2010  y2011  y2012  y2013  y2014
##   <chr> <chr>    <chr>   <dbl>  <dbl>  <dbl>  <dbl>  <dbl>  <dbl>  <dbl>  <dbl>
## 1 m07   ACO      ZMVM   0.0188 0.0253 0.0297 0.0226 0.0247 0.0252 0.0298 0.0251
## 2 m07   ACO      ZMVM   0.0188 0.0253 0.0297 0.0226 0.0247 0.0252 0.0298 0.0251
## 3 m07   AGU      ZM_Gdl 0.0392 0.0278 0.0294 0.0278 0.0265 0.0279 0.0256 0.0245
## # … with 65 more rows, and 1 more variable: y2015 <dbl>
```
…
-  El paquete .RUred[haven] permite importar archivos con extensión .RUred[.dta]

- El comando .RUred[read_dta( )] nos permite leer archivos con extensión .RUred[.dta]

```r
library(haven)

tabla_stata <- 
  read_dta("./data/STATA_archivo.dta") %>% 
  print()
```

```
## # A tibble: 68 × 12
##    month estacion zona     y2007   y2008   y2009   y2010   y2011   y2012   y2013
##    <chr> <chr>    <chr>    <dbl>   <dbl>   <dbl>   <dbl>   <dbl>   <dbl>   <dbl>
##  1 m07   ACO      ZMVM    0.0188  0.0253  0.0297  0.0226  0.0247  0.0252  0.0298
##  2 m07   ACO      ZMVM    0.0188  0.0253  0.0297  0.0226  0.0247  0.0252  0.0298
##  3 m07   AGU      ZM_Gdl  0.0392  0.0278  0.0294  0.0278  0.0265  0.0279  0.0256
##  4 m07   AJM      ZMVM   NA      NA      NA      NA      NA      NA      NA     
##  5 m07   AJU      ZMVM   NA      NA      NA      NA      NA      NA      NA     
##  6 m07   AJU      ZMVM   NA      NA      NA      NA      NA      NA      NA     
##  7 m07   AP       ZM_To… NA      NA      NA      NA       0.0203  0.0236  0.0279
##  8 m07   ATI      ZMVM   NA      NA      NA      NA      NA      NA       0.0265
##  9 m07   ATM      ZM_Gdl  0.0373  0.0255  0.0276  0.0229  0.0292 NA       0.0304
## 10 m07   ATM      ZM_Gdl  0.0373  0.0255  0.0276  0.0229  0.0292 NA       0.0304
## # … with 58 more rows, and 2 more variables: y2014 <dbl>, y2015 <dbl>
```
…
-  El paquete .RUred[readxl] permite importar archivos con extensión .RUred[.xlsx]

- El comando .RUred[read_xlsx( )] nos permite leer archivos con extensión .RUred[.xlsx]

```r
library(readxl)

tabla_excel <- 
  read_xlsx("./data/EXCEL_archivo.xlsx", sheet = "datos_wide") %>% 
  print()
```

```
## # A tibble: 68 × 12
##    month estacion zona     y2007   y2008   y2009   y2010   y2011   y2012   y2013
##    <chr> <chr>    <chr>    <dbl>   <dbl>   <dbl>   <dbl>   <dbl>   <dbl>   <dbl>
##  1 m07   ACO      ZMVM    0.0188  0.0253  0.0297  0.0226  0.0247  0.0252  0.0298
##  2 m07   ACO      ZMVM    0.0188  0.0253  0.0297  0.0226  0.0247  0.0252  0.0298
##  3 m07   AGU      ZM_Gdl  0.0392  0.0278  0.0294  0.0278  0.0265  0.0279  0.0256
##  4 m07   AJM      ZMVM   NA      NA      NA      NA      NA      NA      NA     
##  5 m07   AJU      ZMVM   NA      NA      NA      NA      NA      NA      NA     
##  6 m07   AJU      ZMVM   NA      NA      NA      NA      NA      NA      NA     
##  7 m07   AP       ZM_To… NA      NA      NA      NA       0.0203  0.0236  0.0279
##  8 m07   ATI      ZMVM   NA      NA      NA      NA      NA      NA       0.0265
##  9 m07   ATM      ZM_Gdl  0.0373  0.0255  0.0276  0.0229  0.0292 NA       0.0304
## 10 m07   ATM      ZM_Gdl  0.0373  0.0255  0.0276  0.0229  0.0292 NA       0.0304
## # … with 58 more rows, and 2 more variables: y2014 <dbl>, y2015 <dbl>
```
…
```
## ── Column specification ────────────────────────────────────────────────────────
## Delimiter: ","
## chr (3): Fecha, Cruz Roja, Nativitas
## dbl (2): hora, DIF
```

```
## 
## ℹ Use `spec()` to retrieve the full column specification for this data.
## ℹ Specify the column types or set `show_col_types = FALSE` to quiet this message.
```

```
## # A tibble: 8,764 × 5
##    Fecha     hora   DIF `Cruz Roja` Nativitas
##    <chr>    <dbl> <dbl> <chr>       <chr>    
##  1 01/01/14     0    NA <NA>        <NA>     
##  2 01/01/14     1    68 57          224      
##  3 01/01/14     2    74 52          118      
##  4 01/01/14     3    58 45          59       
##  5 01/01/14     4    50 51          40       
##  6 01/01/14     5    48 39          43       
##  7 01/01/14     6    49 25          39       
##  8 01/01/14     7    41 42          43       
##  9 01/01/14     8    49 48          46       
## 10 01/01/14     9    60 50          47       
## # … with 8,754 more rows
```
…
```
## 
## ℹ Use `spec()` to retrieve the full column specification for this data.
## ℹ Specify the column types or set `show_col_types = FALSE` to quiet this message.
```

```
## Warning: One or more parsing issues, see `problems()` for details
```

```
## # A tibble: 8,764 × 5
##   fecha     hora   dif cruz_roja nativitas
##   <chr>    <dbl> <dbl>     <dbl>     <dbl>
## 1 01/01/14     0    NA        NA        NA
## 2 01/01/14     1    68        57       224
## 3 01/01/14     2    74        52       118
## 4 01/01/14     3    58        45        59
## # … with 8,760 more rows
```
…
